@startuml

interface Commandable
interface ShellEnvironment
interface PythonEnvironment

interface Connection
interface SFTPEnvironment
interface RemoteShellEnvironment
interface RemoteShellAndSFTPEnvironment

'interface Monitorable

abstract class SSHConnection
class SSHJConnection

abstract class ShellPythonEnvironment
class StaticShellPythonEnvironment
abstract class DynamicShellPythonEnvironment
class HighestVersionShellPythonEnvironment

Commandable <|-- ShellEnvironment
Commandable <|-- PythonEnvironment

PythonEnvironment <.. ShellEnvironment : returns associated

ShellEnvironment <|-- RemoteShellEnvironment

Connection <|-- SFTPEnvironment
Connection <|-- RemoteShellEnvironment

SFTPEnvironment <|-- RemoteShellAndSFTPEnvironment
RemoteShellEnvironment <|-- RemoteShellAndSFTPEnvironment

RemoteShellAndSFTPEnvironment <|.. SSHConnection
SSHConnection <|-- SSHJConnection

PythonEnvironment <|.. ShellPythonEnvironment
ShellPythonEnvironment <|-- StaticShellPythonEnvironment
ShellPythonEnvironment <|-- DynamicShellPythonEnvironment
DynamicShellPythonEnvironment <|-- HighestVersionShellPythonEnvironment

HighestVersionShellPythonEnvironment "1" *-- "1" StaticShellPythonEnvironment

ShellPythonEnvironment "1" *-- "1" ShellEnvironment

interface Monitorable
abstract class MonitorableMachine
class RemoteMonitorableMachine

Monitorable <|.. MonitorableMachine
MonitorableMachine <|-- RemoteMonitorableMachine

MonitorableMachine "1" *-- "1" ShellEnvironment
RemoteMonitorableMachine "1" *-- "1" RemoteShellAndSFTPEnvironment

interface ExecutionHandler
abstract class SSHExecutionHandler
class SSHJExecutionHandler
ExecutionHandler <|.. SSHExecutionHandler
SSHExecutionHandler <|-- SSHJExecutionHandler
SSHJExecutionHandler <.. SSHJConnection : create
Commandable ..> ExecutionHandler : relays
Monitorable ..> ExecutionHandler : uses

class MachineState
MachineState <.. Monitorable : create

interface Version
class PEP440Version
Version <|.. PEP440Version

PEP440Version <.. PythonEnvironment

class ViewModel
ViewModel "1" *-- "many" Monitorable
MachineState <.. ViewModel

hide members
@enduml